{
  "project_info": {
    "project_number": "672190762526",
    "project_id": "biblio-bf065",
    "storage_bucket": "biblio-bf065.appspot.com"
  },
  "client": [
    {
      "client_info": {
        "mobilesdk_app_id": "1:672190762526:android:975056d00598d263cd680f",
        "android_client_info": {
          "package_name": "fr.anto.onepiececollection"
        }
      },
      "oauth_client": [
        {
          "client_id": "672190762526-boo3hml9fq67nd37jeu75fvbakat19ht.apps.googleusercontent.com",
          "client_type": 3
        }
      ],
      "api_key": [
        {
          "current_key": "AIzaSyD6GInajFu06NvSFkudevJilIpYhGVQGi0"
        }
      ],
      "services": {
        "appinvite_service": {
          "other_platform_oauth_client": [
            {
              "client_id": "672190762526-boo3hml9fq67nd37jeu75fvbakat19ht.apps.googleusercontent.com",
              "client_type": 3
            }
          ]
        }
      }
    }
  ],
  "configuration_version": "1"
}